lab2/SRC/wave.vcd
$date
     Feb 08, 2018       17:31:42
$end

$version
              SystemC 2.2.0 --- Sep 15 2011 00:24:25
$end

$timescale
     1 ps
$end

$scope module SystemC $end
$var wire    1  aaa  Load_XMT_datareg       $end
$var wire    1  aab  Byte_ready       $end
$var wire    1  aac  T_byte       $end
$var wire    1  aad  rst_b       $end
$var wire    8  aae  Data_Bus [7:0]  $end
$var wire    1  aaf  Serial_out       $end
$var wire    1  aag  clk       $end
$upscope $end
$enddefinitions  $end

$comment
All initial values are dumped below at time 0 sec = 0 timescale units.
$end

$dumpvars
0aaa
0aab
0aac
0aad
b0 aae
1aaf
1aag
$end

#500
0aag

#1000
1aag

#1500
0aag

#2000
1aag

#2500
0aag

#3000
1aag

#3500
1aad
b1000001 aae
0aag

#4000
1aag

#4500
0aag

#5000
1aag

#5500
1aaa
0aag

#6000
1aag

#6500
0aag

#7000
1aag

#7500
0aaa
0aag

#8000
1aag

#8500
0aag

#9000
1aag

#9500
1aab
0aag

#10000
1aag

#10500
0aag

#11000
1aag

#11500
0aab
0aag

#12000
1aag

#12500
0aag

#13000
1aag

#13500
1aac
0aag

#14000
1aag

#14500
0aag

#15000
0aaf
1aag

#15500
0aac
0aag

#16000
1aaf
1aag

#16500
0aag

#17000
0aaf
1aag

#17500
0aag

#18000
1aag

#18500
0aag

#19000
1aag

#19500
0aag

#20000
1aag

#20500
0aag

#21000
1aag

#21500
0aag

#22000
1aaf
1aag

#22500
0aag

#23000
0aaf
1aag

#23500
0aag

#24000
1aaf
1aag

#24500
0aag

#25000
1aag

#25500
0aag

#26000
1aag

#26500
0aag

#27000
1aag

#27500
0aag

#28000
1aag

#28500
0aag

#29000
1aag

#29500
0aag

#30000
1aag

#30500
0aag

#31000
1aag

#31500
0aag

#32000
1aag

#32500
0aag

#33000
1aag

#33500
0aag

#34000
1aag

#34500
0aag

#35000
1aag

#35500
0aag

#36000
1aag

#36500
0aag

#37000
1aag

#37500
b1000010 aae
0aag

#38000
1aag

#38500
0aag

#39000
1aag

#39500
1aaa
0aag

#40000
1aag

#40500
0aag

#41000
1aag

#41500
0aaa
0aag

#42000
1aag

#42500
0aag

#43000
1aag

#43500
1aab
0aag

#44000
1aag

#44500
0aag

#45000
1aag

#45500
0aab
0aag

#46000
1aag

#46500
0aag

#47000
1aag

#47500
1aac
0aag

#48000
1aag

#48500
0aag

#49000
0aaf
1aag

#49500
0aac
0aag

#50000
1aag

#50500
0aag

#51000
1aaf
1aag

#51500
0aag

#52000
0aaf
1aag

#52500
0aag

#53000
1aag

#53500
0aag

#54000
1aag

#54500
0aag

#55000
1aag

#55500
0aag

#56000
1aaf
1aag

#56500
0aag

#57000
0aaf
1aag

#57500
0aag

#58000
1aaf
1aag

#58500
0aag

#59000
1aag

#59500
0aag

#60000
1aag

#60500
0aag

#61000
1aag

#61500
0aag

#62000
1aag

#62500
0aag

#63000
1aag

#63500
0aag

#64000
1aag

#64500
0aag

#65000
1aag

#65500
0aag

#66000
1aag

#66500
0aag

#67000
1aag

#67500
0aag

#68000
1aag

#68500
0aag

#69000
1aag

#69500
0aag

#70000
1aag

#70500
0aag

#71000
1aag

#71500
b1000011 aae
0aag

#72000
1aag

#72500
0aag

#73000
1aag

#73500
1aaa
0aag

#74000
1aag

#74500
0aag

#75000
1aag

#75500
0aaa
0aag

#76000
1aag

#76500
0aag

#77000
1aag

#77500
1aab
0aag

#78000
1aag

#78500
0aag

#79000
1aag

#79500
0aab
0aag

#80000
1aag

#80500
0aag

#81000
1aag

#81500
1aac
0aag

#82000
1aag

#82500
0aag

#83000
0aaf
1aag

#83500
0aac
0aag

#84000
1aaf
1aag

#84500
0aag

#85000
1aag

#85500
0aag

#86000
0aaf
1aag

#86500
0aag

#87000
1aag

#87500
0aag

#88000
1aag

#88500
0aag

#89000
1aag

#89500
0aag

#90000
1aaf
1aag

#90500
0aag

#91000
0aaf
1aag

#91500
0aag

#92000
1aaf
1aag

#92500
0aag

#93000
1aag

#93500
0aag

#94000
1aag

#94500
0aag

#95000
1aag

#95500
0aag

#96000
1aag

#96500
0aag

#97000
1aag

#97500
0aag

#98000
1aag

#98500
0aag

#99000
1aag

#99500
0aag

#100000
1aag

#100500
0aag

#101000
1aag

#101500
0aag

#102000
1aag

#102500
0aag

#103000
1aag

#103500
0aag

#104000
1aag

#104500
0aag

#105000
1aag

#105500
0aad
0aag

