lab3/SRC/wave.vcd
$date
     Feb 15, 2018       12:49:26
$end

$version
              SystemC 2.2.0 --- Sep 15 2011 00:24:25
$end

$timescale
     1 ps
$end

$scope module SystemC $end
$var wire    1  aaa  rst_b       $end
$var wire    1  aab  clk       $end
$var wire    1  aac  Load_XMT_datareg       $end
$var wire    1  aad  Byte_ready       $end
$var wire    1  aae  T_byte       $end
$var wire    8  aaf  DataToUART [7:0]  $end
$var wire    1  aag  Serial_out       $end
$var wire    8  aah  DataToSRAM [7:0]  $end
$var wire    8  aai  DataFromSRAM [7:0]  $end
$var wire   18  aaj  AddrToSRAM [17:0]  $end
$var wire    1  aak  bCE       $end
$var wire    1  aal  bWE       $end
$var wire    1  aam  BREQ0       $end
$var wire    1  aan  BREQ1       $end
$var wire    1  aao  BREQ2       $end
$var wire    1  aap  BGNT0       $end
$var wire    1  aaq  BGNT1       $end
$var wire    1  aar  BGNT2       $end
$var wire    8  aas  DataBus [7:0]  $end
$var wire   32  aat  AddressBus [31:0]  $end
$var wire    1  aau  ControlBus       $end
$upscope $end
$enddefinitions  $end

$comment
All initial values are dumped below at time 0 sec = 0 timescale units.
$end

$dumpvars
0aaa
1aab
0aac
0aad
0aae
bXXXXXXXX aaf
1aag
bXXXXXXXX aah
bXXXXXXXX aai
bXXXXXXXXXXXXXXXXXX aaj
0aak
0aal
0aam
0aan
0aao
0aap
0aaq
0aar
bZZZZZZZZ aas
bZZZZZZZZZZZZZZZZZZZZZZZZZZZZZZZZ aat
Zaau
$end

#500
0aab

#1000
1aab

#1500
0aab

#2000
1aab

#2500
0aab

#3000
1aab

#3500
0aab

#4000
1aab

#4500
0aab

#5000
1aab

#5500
0aab

#6000
1aab

#6500
0aab

#7000
1aab

#7500
0aab

#8000
1aab

#8500
0aab

#9000
1aab

#9500
0aab

#10000
1aab

#10500
0aab

#11000
1aab

#11500
1aaa
0aab

#12000
1aab

#12500
0aab

#13000
1aab

#13500
0aab

#14000
1aab

#14500
0aab

#15000
1aab

#15500
0aab

#16000
1aab

#16500
0aab

#17000
1aab

#17500
0aab

#18000
1aab

#18500
0aab

#19000
1aab

#19500
0aab

#20000
1aab

#20500
0aab

#21000
1aab

#21500
0aab
b0 aat

#22000
1aab

#22500
0aab

#23000
1aab

#23500
0aab
bZZZZZZZZZZZZZZZZZZZZZZZZZZZZZZZZ aat

#24000
1aab

#24500
0aab

#25000
1aab

#25500
0aab

#26000
1aab

#26500
0aab

#27000
1aab

#27500
0aab

#28000
1aab

#28500
0aab

#29000
1aab

#29500
0aab

#30000
1aab

#30500
0aab

#31000
1aab

#31500
0aab

#32000
1aab

#32500
0aab

#33000
1aab

#33500
0aab
b110000 aas
b10000000000000000001000110100 aat

#34000
1aab
1aan
1aaq

#34500
0aab

#35000
1aab
0aan
0aaq

#35500
0aab

#36000
1aab
b110000 aah
b1000110100 aaj
0aau

#36500
0aab

#37000
1aab

#37500
0aab

#38000
1aab

#38500
0aab

#39000
1aab

#39500
0aab

#40000
1aab

#40500
0aab

#41000
1aab

#41500
0aab

#42000
1aab

#42500
0aab

#43000
1aab

#43500
0aab
bZZZZZZZZ aas
b0 aat

#44000
1aab

#44500
0aab

#45000
1aab
Zaau

#45500
0aab
bZZZZZZZZZZZZZZZZZZZZZZZZZZZZZZZZ aat

#46000
1aab

#46500
0aab

#47000
1aab

#47500
0aab

#48000
1aab

#48500
0aab

#49000
1aab

#49500
0aab

#50000
1aab

#50500
0aab

#51000
1aab

#51500
0aab

#52000
1aab

#52500
0aab

#53000
1aab

#53500
0aab

#54000
1aab

#54500
0aab

#55000
1aab

#55500
0aab
b10000000001000000001000110100 aat

#56000
1aab
1aan
1aaq

#56500
0aab

#57000
1aab
0aan
0aaq

#57500
0aab

#58000
1aab
b0 aah
b110000 aai
1aal
b110000 aas
0aau

#58500
0aab

#59000
1aab
b110000 aah

